0.1823267956960816,-0.21528965252223467,0.8471045855727534,0.8269543276220652,-1.1158561918241319,1.8981456351771218,-0.14792875650499193,-2.9186335399063936
0.26448640116406885,-0.316047087027448,-0.3079754895571757,0.647288655251795,-0.00047747376629211756,0.23098187643324794,-0.578209731422221,-0.17368555421528817
-1.1322268917917129,0.20789157239966152,0.02683032932106492,-0.6103710513400966,1.9514352828349275,-1.3325240320260325,-0.7202442279968402,-0.43510917190015536
-1.0500672863237255,3.1500086599518906,-1.1449900367527766,-2.227362102672529,1.1567279462187168,-1.056103097933784,-1.3719319181627405,-2.1343626868517918
1.496880483183876,0.2884975200038319,-0.5088589808841201,1.5456170171031463,-0.1398998135235221,-1.5571160409759845,0.2698197628321236,0.2184498723120126
0.8396036394399797,-0.3563500608295332,-1.6471987650701367,0.2879573105112545,-0.021390824729876662,-0.20092583308589032,-0.5489673350686228,-0.17368555421528817
0.5109652175680307,-0.09438073111597842,0.6964419670775454,-0.2510397065995562,0.05529146213659992,0.4296594228120516,-0.34844804578680727,-0.36975326747893855
-0.8035884699197637,0.9131936139361547,-0.3079754895571757,-0.7900367237103669,-0.014419707742015064,-0.19228767889550744,-1.1923000548477807,-1.15402412053354
0.921763244907967,0.2884975200038319,-0.8604050907062724,0.647288655251795,0.4177895455053978,-1.384352957168329,-1.066975499046646,-0.7618886940062393
-0.39279044257982926,1.0744055091444955,-1.3123929461918968,2.4439453789544974,-0.5930224177345195,-0.2700310666089524,-1.5682737222511847,-0.9579564072698897
0.1823267956960816,-0.09438073111597842,-0.42515752616455954,0.647288655251795,0.8290854477892261,-0.9783597102203392,-0.4946600275547978,-0.5004650763213722
0.26448640116406885,-0.5175619560378746,0.8638448765166657,-0.7900367237103669,-0.7463869914674724,0.2655344931947792,0.6875682821692392,0.741297107681747
-0.06415202070788019,-0.07422924421493618,0.5290390576384251,-1.688365085561718,1.4913415616360686,-0.7019387761280906,-0.15210624169836315,-0.23904145863650497
1.0039228503759543,0.26834603310278893,-1.3123929461918968,0.46762298288152476,-0.1747553984628296,-0.9610834018395736,-0.2189460047923017,-0.17368555421528817
-0.8035884699197637,1.4169807864622213,0.7131822580214571,1.0066199999923355,3.5687344240187957,-1.3411621862164154,-1.5724512074445558,-1.8729390691669248
-0.5571096535158038,0.3691034676080023,-0.3079754895571757,-0.2510397065995562,-0.7463869914674724,3.219783226305685,0.8212478083571162,0.6105852988393133
-0.39279044257982926,-0.033926270412851,-0.14057258011805537,-0.2510397065995562,-0.8718670972489795,0.4901265021447309,0.8880875714510544,0.6759412032605301
0.10016719022809434,0.2884975200038319,-0.14057258011805537,-0.2510397065995562,-0.697589172552442,1.8722311726059737,0.27817473321886604,0.2184498723120126
0.1823267956960816,0.1877400854986186,-0.3079754895571757,-0.2510397065995562,-0.558166832795212,0.5160409647158792,0.6875682821692392,0.8066530121029637
0.34664600663205614,0.4295579283111304,-0.475378398996296,0.10829163814098428,-0.5930224177345195,1.6994680887983185,0.014993166036483062,0.2184498723120126
-0.14631162617586746,0.7116787449257281,-1.1449900367527766,-0.4307053789698264,-1.1158561918241319,1.3193893044214762,0.6332609746554142,0.47987348999687973
-0.8035884699197637,-1.263166971376453,0.8638448765166657,-0.9697023960806371,-0.9415782671275944,0.4037449602409033,2.036895999628122,1.5255679607363484
-1.1322268917917129,-1.6661967093973062,1.784560878431827,-0.07137403422928595,-1.1158561918241319,0.9047579032831037,0.766940500843291,1.1334325342090477
0.8396036394399797,-1.7266511701004343,1.248871568226642,-0.6103710513400966,-0.1398998135235221,-0.3477744543223973,0.5622437263681045,0.741297107681747
0.26448640116406885,1.5983441685716049,0.462077893862777,1.365951344732876,2.05600203765285,-0.7796821638415355,-1.0586205286599037,-1.2847359293759737
-0.310630837111842,0.6915272580246852,-0.9441065454258322,1.365951344732876,0.20168491888169124,-0.19228767889550744,-0.9374734580521402,-1.0886682161123233
-0.8035884699197637,0.04667967719132008,-0.9775871273136562,1.1862856723626056,-0.36994667412295157,0.602422506619707,-0.7745515355106652,-0.04297374537285459
1.6611996941198506,-0.8601372333555998,0.19423323876018522,0.10829163814098428,0.6617786400805502,-0.21820214146665579,-0.6993568020299844,-0.17368555421528817
0.42880561210004337,-0.9004402071576849,0.19423323876018522,0.10829163814098428,0.020435877197292427,-0.9783597102203392,-0.6116296129691902,-0.36975326747893855
0.26448640116406885,-1.7468026570014774,1.031247785955786,-1.1493680684509073,-0.725473640503888,0.3000871099563101,1.1972214757605202,1.0680766297878308
0.01800758476010707,-0.7996827726524717,1.1986506953949057,-0.2510397065995562,-1.032202787969794,1.2502840708984144,1.6609223322247182,1.2641443430514814
0.01800758476010707,-0.960894667860813,1.366053604834026,-1.3290337408211776,-1.0043183200183479,1.5094286966098973,2.112090733108803,1.329500247472698
-0.310630837111842,-2.331195777131714,1.4832356414414105,-1.1493680684509073,-1.032202787969794,2.7619610542153983,1.3392559723351392,1.0027207253666142
0.8396036394399797,-0.316047087027448,-1.345873528079721,1.5456170171031463,-0.9694627350790405,0.04958063843521006,-0.39857786810726126,0.1530939678907958
-1.5430249191316492,1.0744055091444955,-1.0445482910893042,1.0066199999923355,1.49831267862393,0.06685694681597552,-1.0335556174996767,-0.5658209807425889
-1.3787057081956746,0.26834603310278893,0.02683032932106492,0.46762298288152476,0.8778832667042568,-0.4600704587973733,-1.1547026881074405,-0.8272445984274561
-0.4749500480478165,0.4295579283111304,-0.6427813084354156,1.1862856723626056,0.020435877197292427,0.18779110548133413,-0.7244217131902114,-0.7618886940062393
-1.0500672863237255,1.1147084829465814,0.8638448765166657,1.9049483618436867,1.3728325728424233,-1.5571160409759845,-1.2215424512013788,-2.526498113379093
-0.39279044257982926,0.24819454620174672,0.060310911208888984,-0.07137403422928595,-0.07018864364490711,0.1359621803390377,-1.0001357359527074,-0.6311768851638058
-0.06415202070788019,0.34895198070696004,-0.8101842178745359,0.8269543276220652,-0.23052433436572162,0.17915295129095155,-0.8330363282178613,-0.6965327895850225
-0.22847123164385472,-0.7593797988503864,3.0400826992252283,-1.688365085561718,0.3201939076753369,-0.9610834018395736,0.7627630156499198,0.6105852988393133
-0.7214288644517765,-0.07422924421493618,1.7008594237122658,-0.07137403422928595,-0.6348491196616884,0.3864686518601378,0.842135234323972,0.6759412032605301
0.7574440339719924,-0.960894667860813,0.5290390576384251,-0.9697023960806371,-0.8509537462853949,0.6369751233812379,1.0593644643792721,0.8066530121029637
-0.7214288644517765,-1.0011976416628983,1.031247785955786,-0.4307053789698264,-0.7115314065281649,-0.35641260851278,1.548130232003697,1.1334325342090477
0.6752844285040052,0.26834603310278893,-1.831341965453169,0.647288655251795,0.43173177948112074,-0.5982809258434975,-0.5406123646818805,0.1530939678907958
0.42880561210004337,-0.11453221801702136,-1.128249745808864,0.647288655251795,1.0939878933279632,0.18779110548133413,-0.8163263874443768,-0.8272445984274561
-1.4608653136636618,-0.960894667860813,0.6964419670775454,-0.4307053789698264,-0.9694627350790405,-0.07135352023014885,1.439515616976047,1.1334325342090477
-0.4749500480478165,-1.0415006154649842,1.1986506953949057,-0.9697023960806371,-0.8509537462853949,0.7060803569043,1.3684983686887373,1.0680766297878308
-0.5571096535158038,-1.1422580499701975,1.031247785955786,-0.4307053789698264,-1.0600872559212398,0.7838237446177452,1.4311606465893045,1.0680766297878308
-0.22847123164385472,-0.23544113942327763,-0.475378398996296,-0.9697023960806371,-0.9485493841154559,0.343277880908224,1.439515616976047,1.1334325342090477
1.9076785105238123,-1.0455309128451926,0.07705120215280065,-0.2510397065995562,-0.5790801837587966,0.965224982615783,0.6583258858156409,0.8720089165241806
2.1541573269277743,-0.9346977348894578,-0.006650252566759141,0.10829163814098428,-0.41177337605012054,0.8442908239504244,0.40767677421337156,0.741297107681747
1.9898381159917995,-1.1059853735483207,0.26119440253583337,-0.07137403422928595,-0.753358108455334,0.7492711278562139,0.5413563004012487,0.8066530121029637
-1.2143864972597,0.7519817187278133,1.2656118591705536,1.365951344732876,3.011045064989876,-1.3066095694548843,-1.413706770096452,-1.480803642639624
-0.310630837111842,-0.21528965252223467,0.19423323876018522,-0.6103710513400966,-0.8300403953218105,0.3000871099563101,1.26823872404783,1.0027207253666142
-0.5571096535158038,-0.960894667860813,0.3616361481993048,-0.9697023960806371,-0.7882136933946415,-0.028162749278235016,1.3643208834953664,1.0027207253666142
0.10016719022809434,-1.0213491285639411,1.1986506953949057,-0.7900367237103669,-0.7185025235160265,1.2243696083272664,0.7209881637162082,0.5452293944180966
1.4147208777158888,-0.11453221801702136,0.3616361481993048,-0.4307053789698264,-0.11201534557207607,0.10140956357750647,0.6666808562023834,0.6105852988393133
1.0860824558439415,0.5907698235194718,0.5290390576384251,-0.9697023960806371,0.49447183237187436,0.10140956357750647,0.48704899288742376,-0.17368555421528817
1.496880483183876,-0.1749866787201495,0.02683032932106492,-1.8680307579319884,-0.36297555713509,0.7751855904273622,1.3643208834953664,0.8720089165241806
-1.3787057081956746,0.4295579283111304,-0.8101842178745359,-0.2510397065995562,0.9197099686314256,-1.3411621862164154,-1.0168456767261922,-0.5004650763213722
-0.310630837111842,2.1222828279987147,-0.9775871273136562,-1.8680307579319884,1.749272890186944,-1.5139252700240706,-1.1171053213670998,-1.6115154514820575
3.961668647223492,-0.4974104691368317,-2.383771566602266,1.0066199999923355,-1.1158561918241319,-1.5571160409759845,-0.14792875650499193,1.1334325342090477
-0.5571096535158038,0.7519817187278133,0.02683032932106492,0.10829163814098428,-0.321148855207921,-0.5118993839396698,0.3575469518929179,0.3491616811544462
-1.2143864972597,1.2557688912538791,-0.14057258011805537,-0.2510397065995562,0.04832034514873832,-0.4773467671781388,0.2698197628321236,-0.04297374537285459
-0.39279044257982926,1.5983441685716049,-0.14057258011805537,1.7252826894734163,1.4216303917574535,-0.6760243135569425,-1.4262392256765655,-1.4154477382184072
-0.885748075387751,-1.2228639975743678,1.0647283678436101,-1.8680307579319884,0.5362985342990432,-0.6587480051761768,0.3450144963128043,0.6759412032605301
-0.9679076808557383,2.0215253934935014,-1.3960944009114566,0.2879573105112545,-0.5233112478559045,-0.9524452476491909,-0.8581012393780884,1.0027207253666142
-1.3787057081956746,0.4698609021132156,-0.6427813084354156,0.10829163814098428,1.205525765133747,-1.1165701772664633,-0.6408720093227883,-0.5658209807425889
-0.5571096535158038,0.7721332056288556,-1.6974196379018731,0.647288655251795,-0.07018864364490711,-0.6933006219377079,-1.6100485741848962,-1.807583164745708
0.26448640116406885,-0.1749866787201495,-0.14057258011805537,0.46762298288152476,0.9127388516435643,-0.3650507627031627,-0.38186792733377667,-0.30439736305772175
-0.4749500480478165,2.001373906592458,-1.3960944009114566,1.365951344732876,-0.4536000779772895,-1.0042741727914875,-1.2758497587152038,0.8720089165241806
1.3325612722479032,-0.4168045215326613,0.2277138206480093,1.365951344732876,-0.2374954513535831,0.3000871099563101,-0.6241620685493036,-0.8926005028486729